{
	"id": "d1bf8dc0-6edb-41cc-b72f-c462176b2c2a",
	"name": "Final Project Social Network",
	"values": [
		{
			"key": "baseURL",
			"value": "http://localhost:8080",
			"enabled": true
		},
		{
			"key": "mockURL",
			"value": "https://ceb12cb7-e24d-4e4a-9801-c82539ffd8cb.mock.pstmn.io",
			"enabled": true
		},
		{
			"key": "loggedUserID",
			"value": "4",
			"enabled": true
		},
		{
			"key": "password",
			"value": "asdf",
			"enabled": true
		},
		{
			"key": "firstName",
			"value": "Brian",
			"enabled": true
		},
		{
			"key": "lastName",
			"value": "Cassin",
			"enabled": true
		},
		{
			"key": "age",
			"value": "52",
			"enabled": true
		},
		{
			"key": "postText",
			"value": "Post Text inrfco",
			"enabled": true
		},
		{
			"key": "postTitle",
			"value": "PT inrfco",
			"enabled": true
		},
		{
			"key": "editPostText",
			"value": "This is edited text",
			"enabled": true
		},
		{
			"key": "editPostTitle",
			"value": "Edited Title",
			"enabled": true
		},
		{
			"key": "postStatus",
			"value": "false",
			"enabled": true
		},
		{
			"key": "friendPostID",
			"value": 78,
			"enabled": true
		},
		{
			"key": "lastPostID",
			"value": 82,
			"enabled": true
		},
		{
			"key": "notOwnedPostID",
			"value": "2",
			"enabled": true
		},
		{
			"key": "numExistPosts",
			"value": 60,
			"enabled": true
		},
		{
			"key": "numPostsBeforeDelete",
			"value": 25,
			"enabled": true
		},
		{
			"key": "commentText",
			"value": "CT inrfco",
			"enabled": true
		},
		{
			"key": "msgExistingEmail",
			"value": "This email already exists!",
			"enabled": true
		},
		{
			"key": "msgExisingUsername",
			"value": "User with same username already exists!",
			"enabled": true
		},
		{
			"key": "msgMissingEmail",
			"value": "Registration was not successful due to no email credential provided. Please provide correct email!",
			"enabled": true
		},
		{
			"key": "msgMissingUsername/Password",
			"value": "Username/password can't be empty!",
			"enabled": true
		},
		{
			"key": "msgCommentNotOwner",
			"value": "You are not the owner of this comment",
			"enabled": true
		},
		{
			"key": "lastCommentID",
			"value": 35,
			"enabled": true
		},
		{
			"key": "lastCommentPostID",
			"value": 79,
			"enabled": true
		},
		{
			"key": "friendCommentID",
			"value": 68,
			"enabled": true
		},
		{
			"key": "privatePostID",
			"value": 78,
			"enabled": true
		},
		{
			"key": "lastUserID",
			"value": "",
			"enabled": true
		}
	],
	"_postman_variable_scope": "environment",
	"_postman_exported_at": "2019-11-29T14:55:37.862Z",
	"_postman_exported_using": "Postman/7.12.0"
}